{
  "configVersion": 2,
  "packages": [
    {
      "name": "async",
      "rootUri": "file:///D:/_flutter/flutter/.pub-cache/hosted/pub.dartlang.org/async-2.4.2",
      "packageUri": "lib/",
      "languageVersion": "2.2"
    },
    {
      "name": "boolean_selector",
      "rootUri": "file:///D:/_flutter/flutter/.pub-cache/hosted/pub.dartlang.org/boolean_selector-2.0.0",
      "packageUri": "lib/",
      "languageVersion": "2.4"
    },
    {
      "name": "characters",
      "rootUri": "file:///D:/_flutter/flutter/.pub-cache/hosted/pub.dartlang.org/characters-1.0.0",
      "packageUri": "lib/",
      "languageVersion": "2.6"
    },
    {
      "name": "charcode",
      "rootUri": "file:///D:/_flutter/flutter/.pub-cache/hosted/pub.dartlang.org/charcode-1.1.3",
      "packageUri": "lib/",
      "languageVersion": "2.0"
    },
    {
      "name": "clock",
      "rootUri": "file:///D:/_flutter/flutter/.pub-cache/hosted/pub.dartlang.org/clock-1.0.1",
      "packageUri": "lib/",
      "languageVersion": "2.0"
    },
    {
      "name": "collection",
      "rootUri": "file:///D:/_flutter/flutter/.pub-cache/hosted/pub.dartlang.org/collection-1.14.13",
      "packageUri": "lib/",
      "languageVersion": "2.3"
    },
    {
      "name": "connectivity",
      "rootUri": "file:///D:/_flutter/flutter/.pub-cache/hosted/pub.dartlang.org/connectivity-0.4.9+5",
      "packageUri": "lib/",
      "languageVersion": "2.1"
    },
    {
      "name": "connectivity_for_web",
      "rootUri": "file:///D:/_flutter/flutter/.pub-cache/hosted/pub.dartlang.org/connectivity_for_web-0.3.1+2",
      "packageUri": "lib/",
      "languageVersion": "2.6"
    },
    {
      "name": "connectivity_macos",
      "rootUri": "file:///D:/_flutter/flutter/.pub-cache/hosted/pub.dartlang.org/connectivity_macos-0.1.0+5",
      "packageUri": "lib/",
      "languageVersion": "2.1"
    },
    {
      "name": "connectivity_platform_interface",
      "rootUri": "file:///D:/_flutter/flutter/.pub-cache/hosted/pub.dartlang.org/connectivity_platform_interface-1.0.6",
      "packageUri": "lib/",
      "languageVersion": "2.1"
    },
    {
      "name": "cupertino_icons",
      "rootUri": "file:///D:/_flutter/flutter/.pub-cache/hosted/pub.dartlang.org/cupertino_icons-0.1.3",
      "packageUri": "lib/",
      "languageVersion": "2.0"
    },
    {
      "name": "device_info",
      "rootUri": "file:///D:/_flutter/flutter/.pub-cache/hosted/pub.dartlang.org/device_info-0.4.2+7",
      "packageUri": "lib/",
      "languageVersion": "2.1"
    },
    {
      "name": "device_info_platform_interface",
      "rootUri": "file:///D:/_flutter/flutter/.pub-cache/hosted/pub.dartlang.org/device_info_platform_interface-1.0.0",
      "packageUri": "lib/",
      "languageVersion": "2.7"
    },
    {
      "name": "dio",
      "rootUri": "file:///D:/_flutter/flutter/.pub-cache/hosted/pub.dartlang.org/dio-3.0.10",
      "packageUri": "lib/",
      "languageVersion": "2.4"
    },
    {
      "name": "equatable",
      "rootUri": "file:///D:/_flutter/flutter/.pub-cache/hosted/pub.dartlang.org/equatable-1.2.4",
      "packageUri": "lib/",
      "languageVersion": "2.0"
    },
    {
      "name": "fa_stepper",
      "rootUri": "file:///D:/_flutter/flutter/.pub-cache/hosted/pub.dartlang.org/fa_stepper-0.0.2",
      "packageUri": "lib/",
      "languageVersion": "2.1"
    },
    {
      "name": "fake_async",
      "rootUri": "file:///D:/_flutter/flutter/.pub-cache/hosted/pub.dartlang.org/fake_async-1.1.0",
      "packageUri": "lib/",
      "languageVersion": "2.2"
    },
    {
      "name": "file",
      "rootUri": "file:///D:/_flutter/flutter/.pub-cache/hosted/pub.dartlang.org/file-5.2.1",
      "packageUri": "lib/",
      "languageVersion": "2.2"
    },
    {
      "name": "file_picker",
      "rootUri": "file:///D:/_flutter/flutter/.pub-cache/hosted/pub.dartlang.org/file_picker-1.13.3",
      "packageUri": "lib/",
      "languageVersion": "2.0"
    },
    {
      "name": "file_picker_platform_interface",
      "rootUri": "file:///D:/_flutter/flutter/.pub-cache/hosted/pub.dartlang.org/file_picker_platform_interface-1.3.1",
      "packageUri": "lib/",
      "languageVersion": "2.1"
    },
    {
      "name": "file_utils",
      "rootUri": "file:///D:/_flutter/flutter/.pub-cache/hosted/pub.dartlang.org/file_utils-0.1.4",
      "packageUri": "lib/",
      "languageVersion": "2.3"
    },
    {
      "name": "flutter",
      "rootUri": "file:///D:/_flutter/flutter/packages/flutter",
      "packageUri": "lib/",
      "languageVersion": "2.9"
    },
    {
      "name": "flutter_holo_date_picker",
      "rootUri": "file:///D:/_flutter/flutter/.pub-cache/hosted/pub.dartlang.org/flutter_holo_date_picker-0.2.1",
      "packageUri": "lib/",
      "languageVersion": "2.1"
    },
    {
      "name": "flutter_image_compress",
      "rootUri": "file:///D:/_flutter/flutter/.pub-cache/hosted/pub.dartlang.org/flutter_image_compress-0.7.0",
      "packageUri": "lib/",
      "languageVersion": "2.0"
    },
    {
      "name": "flutter_plugin_android_lifecycle",
      "rootUri": "file:///D:/_flutter/flutter/.pub-cache/hosted/pub.dartlang.org/flutter_plugin_android_lifecycle-1.0.8",
      "packageUri": "lib/",
      "languageVersion": "2.1"
    },
    {
      "name": "flutter_spinkit",
      "rootUri": "file:///D:/_flutter/flutter/.pub-cache/hosted/pub.dartlang.org/flutter_spinkit-4.1.2+1",
      "packageUri": "lib/",
      "languageVersion": "2.5"
    },
    {
      "name": "flutter_test",
      "rootUri": "file:///D:/_flutter/flutter/packages/flutter_test",
      "packageUri": "lib/",
      "languageVersion": "2.2"
    },
    {
      "name": "flutter_web_plugins",
      "rootUri": "file:///D:/_flutter/flutter/packages/flutter_web_plugins",
      "packageUri": "lib/",
      "languageVersion": "2.0"
    },
    {
      "name": "geocoder",
      "rootUri": "file:///D:/_flutter/flutter/.pub-cache/hosted/pub.dartlang.org/geocoder-0.2.1",
      "packageUri": "lib/",
      "languageVersion": "2.0"
    },
    {
      "name": "geolocator",
      "rootUri": "file:///D:/_flutter/flutter/.pub-cache/hosted/pub.dartlang.org/geolocator-5.3.2+2",
      "packageUri": "lib/",
      "languageVersion": "2.1"
    },
    {
      "name": "globbing",
      "rootUri": "file:///D:/_flutter/flutter/.pub-cache/hosted/pub.dartlang.org/globbing-0.3.1",
      "packageUri": "lib/",
      "languageVersion": "2.2"
    },
    {
      "name": "google_api_availability",
      "rootUri": "file:///D:/_flutter/flutter/.pub-cache/hosted/pub.dartlang.org/google_api_availability-2.0.4",
      "packageUri": "lib/",
      "languageVersion": "2.3"
    },
    {
      "name": "google_maps_flutter",
      "rootUri": "file:///D:/_flutter/flutter/.pub-cache/hosted/pub.dartlang.org/google_maps_flutter-0.5.33",
      "packageUri": "lib/",
      "languageVersion": "2.1"
    },
    {
      "name": "google_maps_flutter_platform_interface",
      "rootUri": "file:///D:/_flutter/flutter/.pub-cache/hosted/pub.dartlang.org/google_maps_flutter_platform_interface-1.0.4",
      "packageUri": "lib/",
      "languageVersion": "2.3"
    },
    {
      "name": "hexcolor",
      "rootUri": "file:///D:/_flutter/flutter/.pub-cache/hosted/pub.dartlang.org/hexcolor-1.0.4",
      "packageUri": "lib/",
      "languageVersion": "2.8"
    },
    {
      "name": "http",
      "rootUri": "file:///D:/_flutter/flutter/.pub-cache/hosted/pub.dartlang.org/http-0.12.2",
      "packageUri": "lib/",
      "languageVersion": "2.4"
    },
    {
      "name": "http_parser",
      "rootUri": "file:///D:/_flutter/flutter/.pub-cache/hosted/pub.dartlang.org/http_parser-3.1.4",
      "packageUri": "lib/",
      "languageVersion": "2.3"
    },
    {
      "name": "im_stepper",
      "rootUri": "file:///D:/_flutter/flutter/.pub-cache/hosted/pub.dartlang.org/im_stepper-0.1.2+2",
      "packageUri": "lib/",
      "languageVersion": "2.7"
    },
    {
      "name": "image_picker",
      "rootUri": "file:///D:/_flutter/flutter/.pub-cache/hosted/pub.dartlang.org/image_picker-0.6.7+7",
      "packageUri": "lib/",
      "languageVersion": "2.1"
    },
    {
      "name": "image_picker_platform_interface",
      "rootUri": "file:///D:/_flutter/flutter/.pub-cache/hosted/pub.dartlang.org/image_picker_platform_interface-1.1.0",
      "packageUri": "lib/",
      "languageVersion": "2.5"
    },
    {
      "name": "intl",
      "rootUri": "file:///D:/_flutter/flutter/.pub-cache/hosted/pub.dartlang.org/intl-0.16.1",
      "packageUri": "lib/",
      "languageVersion": "2.5"
    },
    {
      "name": "js",
      "rootUri": "file:///D:/_flutter/flutter/.pub-cache/hosted/pub.dartlang.org/js-0.6.2",
      "packageUri": "lib/",
      "languageVersion": "2.0"
    },
    {
      "name": "location",
      "rootUri": "file:///D:/_flutter/flutter/.pub-cache/hosted/pub.dartlang.org/location-3.0.2",
      "packageUri": "lib/",
      "languageVersion": "2.0"
    },
    {
      "name": "location_permissions",
      "rootUri": "file:///D:/_flutter/flutter/.pub-cache/hosted/pub.dartlang.org/location_permissions-3.0.0+1",
      "packageUri": "lib/",
      "languageVersion": "2.1"
    },
    {
      "name": "location_platform_interface",
      "rootUri": "file:///D:/_flutter/flutter/.pub-cache/hosted/pub.dartlang.org/location_platform_interface-1.0.0",
      "packageUri": "lib/",
      "languageVersion": "2.4"
    },
    {
      "name": "location_web",
      "rootUri": "file:///D:/_flutter/flutter/.pub-cache/hosted/pub.dartlang.org/location_web-1.0.0",
      "packageUri": "lib/",
      "languageVersion": "2.1"
    },
    {
      "name": "matcher",
      "rootUri": "file:///D:/_flutter/flutter/.pub-cache/hosted/pub.dartlang.org/matcher-0.12.8",
      "packageUri": "lib/",
      "languageVersion": "2.4"
    },
    {
      "name": "meta",
      "rootUri": "file:///D:/_flutter/flutter/.pub-cache/hosted/pub.dartlang.org/meta-1.1.8",
      "packageUri": "lib/",
      "languageVersion": "1.12"
    },
    {
      "name": "path",
      "rootUri": "file:///D:/_flutter/flutter/.pub-cache/hosted/pub.dartlang.org/path-1.7.0",
      "packageUri": "lib/",
      "languageVersion": "2.0"
    },
    {
      "name": "path_provider",
      "rootUri": "file:///D:/_flutter/flutter/.pub-cache/hosted/pub.dartlang.org/path_provider-1.6.14",
      "packageUri": "lib/",
      "languageVersion": "2.1"
    },
    {
      "name": "path_provider_linux",
      "rootUri": "file:///D:/_flutter/flutter/.pub-cache/hosted/pub.dartlang.org/path_provider_linux-0.0.1+2",
      "packageUri": "lib/",
      "languageVersion": "2.1"
    },
    {
      "name": "path_provider_macos",
      "rootUri": "file:///D:/_flutter/flutter/.pub-cache/hosted/pub.dartlang.org/path_provider_macos-0.0.4+3",
      "packageUri": "lib/",
      "languageVersion": "2.1"
    },
    {
      "name": "path_provider_platform_interface",
      "rootUri": "file:///D:/_flutter/flutter/.pub-cache/hosted/pub.dartlang.org/path_provider_platform_interface-1.0.3",
      "packageUri": "lib/",
      "languageVersion": "2.1"
    },
    {
      "name": "pedantic",
      "rootUri": "file:///D:/_flutter/flutter/.pub-cache/hosted/pub.dartlang.org/pedantic-1.9.0",
      "packageUri": "lib/",
      "languageVersion": "2.1"
    },
    {
      "name": "permission_handler",
      "rootUri": "file:///D:/_flutter/flutter/.pub-cache/hosted/pub.dartlang.org/permission_handler-5.0.1+1",
      "packageUri": "lib/",
      "languageVersion": "2.7"
    },
    {
      "name": "permission_handler_platform_interface",
      "rootUri": "file:///D:/_flutter/flutter/.pub-cache/hosted/pub.dartlang.org/permission_handler_platform_interface-2.0.1",
      "packageUri": "lib/",
      "languageVersion": "2.6"
    },
    {
      "name": "platform",
      "rootUri": "file:///D:/_flutter/flutter/.pub-cache/hosted/pub.dartlang.org/platform-2.2.1",
      "packageUri": "lib/",
      "languageVersion": "1.24"
    },
    {
      "name": "plugin_platform_interface",
      "rootUri": "file:///D:/_flutter/flutter/.pub-cache/hosted/pub.dartlang.org/plugin_platform_interface-1.0.2",
      "packageUri": "lib/",
      "languageVersion": "2.1"
    },
    {
      "name": "process",
      "rootUri": "file:///D:/_flutter/flutter/.pub-cache/hosted/pub.dartlang.org/process-3.0.13",
      "packageUri": "lib/",
      "languageVersion": "2.0"
    },
    {
      "name": "provider",
      "rootUri": "file:///D:/_flutter/flutter/.pub-cache/hosted/pub.dartlang.org/provider-3.2.0",
      "packageUri": "lib/",
      "languageVersion": "2.0"
    },
    {
      "name": "random_string",
      "rootUri": "file:///D:/_flutter/flutter/.pub-cache/hosted/pub.dartlang.org/random_string-2.1.0",
      "packageUri": "lib/",
      "languageVersion": "2.1"
    },
    {
      "name": "shared_preferences",
      "rootUri": "file:///D:/_flutter/flutter/.pub-cache/hosted/pub.dartlang.org/shared_preferences-0.5.10",
      "packageUri": "lib/",
      "languageVersion": "2.1"
    },
    {
      "name": "shared_preferences_linux",
      "rootUri": "file:///D:/_flutter/flutter/.pub-cache/hosted/pub.dartlang.org/shared_preferences_linux-0.0.2+2",
      "packageUri": "lib/",
      "languageVersion": "2.1"
    },
    {
      "name": "shared_preferences_macos",
      "rootUri": "file:///D:/_flutter/flutter/.pub-cache/hosted/pub.dartlang.org/shared_preferences_macos-0.0.1+10",
      "packageUri": "lib/",
      "languageVersion": "2.1"
    },
    {
      "name": "shared_preferences_platform_interface",
      "rootUri": "file:///D:/_flutter/flutter/.pub-cache/hosted/pub.dartlang.org/shared_preferences_platform_interface-1.0.4",
      "packageUri": "lib/",
      "languageVersion": "2.1"
    },
    {
      "name": "shared_preferences_web",
      "rootUri": "file:///D:/_flutter/flutter/.pub-cache/hosted/pub.dartlang.org/shared_preferences_web-0.1.2+7",
      "packageUri": "lib/",
      "languageVersion": "2.1"
    },
    {
      "name": "sky_engine",
      "rootUri": "file:///D:/_flutter/flutter/bin/cache/pkg/sky_engine",
      "packageUri": "lib/",
      "languageVersion": "1.11"
    },
    {
      "name": "source_span",
      "rootUri": "file:///D:/_flutter/flutter/.pub-cache/hosted/pub.dartlang.org/source_span-1.7.0",
      "packageUri": "lib/",
      "languageVersion": "2.6"
    },
    {
      "name": "sqflite",
      "rootUri": "file:///D:/_flutter/flutter/.pub-cache/hosted/pub.dartlang.org/sqflite-1.3.1+1",
      "packageUri": "lib/",
      "languageVersion": "2.7"
    },
    {
      "name": "sqflite_common",
      "rootUri": "file:///D:/_flutter/flutter/.pub-cache/hosted/pub.dartlang.org/sqflite_common-1.0.2+1",
      "packageUri": "lib/",
      "languageVersion": "2.7"
    },
    {
      "name": "stack_trace",
      "rootUri": "file:///D:/_flutter/flutter/.pub-cache/hosted/pub.dartlang.org/stack_trace-1.9.5",
      "packageUri": "lib/",
      "languageVersion": "2.0"
    },
    {
      "name": "stream_channel",
      "rootUri": "file:///D:/_flutter/flutter/.pub-cache/hosted/pub.dartlang.org/stream_channel-2.0.0",
      "packageUri": "lib/",
      "languageVersion": "2.0"
    },
    {
      "name": "stream_transform",
      "rootUri": "file:///D:/_flutter/flutter/.pub-cache/hosted/pub.dartlang.org/stream_transform-1.2.0",
      "packageUri": "lib/",
      "languageVersion": "2.6"
    },
    {
      "name": "string_scanner",
      "rootUri": "file:///D:/_flutter/flutter/.pub-cache/hosted/pub.dartlang.org/string_scanner-1.0.5",
      "packageUri": "lib/",
      "languageVersion": "2.0"
    },
    {
      "name": "synchronized",
      "rootUri": "file:///D:/_flutter/flutter/.pub-cache/hosted/pub.dartlang.org/synchronized-2.2.0+2",
      "packageUri": "lib/",
      "languageVersion": "2.8"
    },
    {
      "name": "term_glyph",
      "rootUri": "file:///D:/_flutter/flutter/.pub-cache/hosted/pub.dartlang.org/term_glyph-1.1.0",
      "packageUri": "lib/",
      "languageVersion": "1.8"
    },
    {
      "name": "test_api",
      "rootUri": "file:///D:/_flutter/flutter/.pub-cache/hosted/pub.dartlang.org/test_api-0.2.17",
      "packageUri": "lib/",
      "languageVersion": "2.7"
    },
    {
      "name": "typed_data",
      "rootUri": "file:///D:/_flutter/flutter/.pub-cache/hosted/pub.dartlang.org/typed_data-1.2.0",
      "packageUri": "lib/",
      "languageVersion": "2.4"
    },
    {
      "name": "vector_math",
      "rootUri": "file:///D:/_flutter/flutter/.pub-cache/hosted/pub.dartlang.org/vector_math-2.0.8",
      "packageUri": "lib/",
      "languageVersion": "2.0"
    },
    {
      "name": "video_player",
      "rootUri": "file:///D:/_flutter/flutter/.pub-cache/hosted/pub.dartlang.org/video_player-0.10.12+2",
      "packageUri": "lib/",
      "languageVersion": "2.1"
    },
    {
      "name": "video_player_platform_interface",
      "rootUri": "file:///D:/_flutter/flutter/.pub-cache/hosted/pub.dartlang.org/video_player_platform_interface-2.1.1",
      "packageUri": "lib/",
      "languageVersion": "2.1"
    },
    {
      "name": "video_player_web",
      "rootUri": "file:///D:/_flutter/flutter/.pub-cache/hosted/pub.dartlang.org/video_player_web-0.1.3+2",
      "packageUri": "lib/",
      "languageVersion": "2.1"
    },
    {
      "name": "xdg_directories",
      "rootUri": "file:///D:/_flutter/flutter/.pub-cache/hosted/pub.dartlang.org/xdg_directories-0.1.0",
      "packageUri": "lib/",
      "languageVersion": "2.3"
    },
    {
      "name": "ad1ms2_dev",
      "rootUri": "../",
      "packageUri": "lib/",
      "languageVersion": "2.7"
    }
  ],
  "generated": "2020-11-24T11:15:30.828175Z",
  "generator": "pub",
  "generatorVersion": "2.9.1"
}
